<?xml version="1.0" encoding="UTF-8"?>
<svg width="150px" height="150px" viewBox="0 0 150 150" version="1.1" xmlns="http://www.w3.org/2000/svg" xmlns:xlink="http://www.w3.org/1999/xlink">
    <!-- Generator: Sketch 52.1 (67048) - http://www.bohemiancoding.com/sketch -->
    <title>Display settings</title>
    <desc>Created with Sketch.</desc>
    <g id="Display-settings" stroke="none" stroke-width="1" fill="none" fill-rule="evenodd">
        <rect id="BBox" stroke-opacity="0" stroke="#FFFFFF" fill-rule="nonzero" x="0.5" y="0.5" width="149" height="149"></rect>
        <rect id="Rectangle-4" stroke="#C0BDB6" stroke-width="3" stroke-linecap="round" fill-rule="nonzero" x="20" y="42" width="110" height="64" rx="5"></rect>
        <path d="M34,32 L117,32 C119.761424,32 122,34.2385763 122,37 L122,42 L29,42 L29,37 C29,34.2385763 31.2385763,32 34,32 Z" id="Rectangle-4" stroke="#C0BDB6" stroke-width="3" stroke-linecap="round" fill-rule="nonzero"></path>
        <g id="Group" transform="translate(50.000000, 54.000000)" fill-rule="nonzero" stroke="#FFD481" stroke-linecap="round" stroke-width="3">
            <path d="M2,23.2352941 C7.8974359,15.0784314 15.5641026,11 25,11 C34.4358974,11 42.1025641,15.0784314 48,23.2352941 C42.5238095,32.4117647 34.8571429,37 25,37 C15.1428571,37 7.47619048,32.4117647 2,23.2352941 Z" id="Path-10"></path>
            <circle id="Oval-2" cx="25" cy="20" r="9"></circle>
            <path d="M0.964780098,9.04804087 L8.03584791,16.1191087" id="Path-11"></path>
            <path d="M42.4906089,9.04804087 L49.5616767,16.1191087" id="Path-11" transform="translate(46.026143, 12.583575) scale(-1, 1) translate(-46.026143, -12.583575) "></path>
            <path d="M25.5,0 L25.5,10" id="Path-12"></path>
        </g>
        <path d="M38,43 L38,105" id="Path-14" stroke="#C0BDB6" stroke-width="3" stroke-linecap="round" stroke-dasharray="4,9" fill-rule="nonzero"></path>
        <path d="M113.25,43 L113.25,105" id="Path-14" stroke="#C0BDB6" stroke-width="3" stroke-linecap="round" stroke-dasharray="4,9" fill-rule="nonzero"></path>
        <polyline id="Path-15" stroke="#C0BDB6" stroke-width="3" stroke-linecap="round" stroke-linejoin="round" fill-rule="nonzero" points="56 125.5 75.5 106 95 125.5"></polyline>
    </g>
</svg>