<svg version="1.1" xmlns="http://www.w3.org/2000/svg">

	<!-- SERVICES ICONS -->

	<symbol id="icon-strategy" class="icon-strategy" viewBox="0 0 32 32">
		<path d="M11,25.07c-.41,0-1.19-.51-1.86-3.95a1.62,1.62,0,0,0-.61-1,6.74,6.74,0,0,1-1.06-9.45,7.51,7.51,0,0,1,5.92-2.75,7.42,7.42,0,0,1,5.23,2.31,6.68,6.68,0,0,1-.09,9.43c-.17.16-.35.31-.53.46a1.72,1.72,0,0,0-.61,1c-.65,3.44-1.45,3.95-1.86,3.95ZM13.23,6.6A8.66,8.66,0,0,0,7.12,9.08a8,8,0,0,0-2.44,5.78,8.12,8.12,0,0,0,3,6.28.37.37,0,0,1,.15.22c.27,1.38,1,5,3.17,5H15.5c2.19,0,2.89-3.65,3.17-5a.33.33,0,0,1,.15-.23,8.2,8.2,0,0,0,3-6,8,8,0,0,0-2.27-5.86A8.69,8.69,0,0,0,13.39,6.6Z"/>
        <path d="M15.83,25.07a.66.66,0,0,0-.65.66v3.41a.71.71,0,0,1-.19.47l-.55.55a.68.68,0,0,1-.47.19H12.39a.66.66,0,0,1-.46-.19l-.55-.55a.67.67,0,0,1-.19-.47V25.73a.67.67,0,0,0-.66-.66.67.67,0,0,0-.67.66v3.41a2,2,0,0,0,.59,1.41l.55.54a2,2,0,0,0,1.39.58H14a2,2,0,0,0,1.4-.58l.55-.54a2,2,0,0,0,.58-1.41V25.73a.67.67,0,0,0-.67-.66"/>
        <path d="M13.23,0a.65.65,0,0,0-.66.66v4a.66.66,0,0,0,1.31,0h0v-4A.65.65,0,0,0,13.23,0"/>
        <path d="M6,2A.73.73,0,0,0,5.64,2a.68.68,0,0,0-.24.91l2,3.39a.66.66,0,0,0,.87.35h0A.67.67,0,0,0,8.6,5.8l-.08-.12-2-3.41A.66.66,0,0,0,6,2"/>
        <path d="M.65,7.26A.66.66,0,0,0,0,7.92a.68.68,0,0,0,.33.57l3.43,2a.66.66,0,0,0,.66-1.14h0L1,7.35a.67.67,0,0,0-.34-.09"/>
        <path d="M20.49,2a.62.62,0,0,0-.57.32l-2,3.43a.67.67,0,0,0,.13.93A.66.66,0,0,0,19,6.49h0a.8.8,0,0,0,.08-.16l2-3.42a.66.66,0,0,0-.24-.9.63.63,0,0,0-.33-.09"/>
        <path d="M25.8,7.26a.63.63,0,0,0-.33.09L22,9.33a.66.66,0,1,0,.66,1.14l3.43-2a.66.66,0,0,0-.33-1.23"/>
	</symbol>


	<symbol id="icon-uxui" class="icon-uxui" viewBox="0 0 32 32">
		<path d="M24.29,4.64H21.76A.76.76,0,0,1,21,3.88V1.27A.76.76,0,0,1,21.76.5h2.53a.76.76,0,0,1,.76.77V3.88A.76.76,0,0,1,24.29,4.64ZM22.52,3.11h1V2h-1Z" />
		<path d="M3.88,4.64H1.27A.76.76,0,0,1,.5,3.88V1.27A.76.76,0,0,1,1.27.5H3.88a.76.76,0,0,1,.76.77V3.88A.76.76,0,0,1,3.88,4.64ZM2,3.11H3.11V2H2Z" />
		<path d="M3.88,24.44H1.27a.76.76,0,0,1-.77-.77V21.14a.77.77,0,0,1,.77-.77H3.88a.77.77,0,0,1,.76.77v2.53A.76.76,0,0,1,3.88,24.44ZM2,22.91H3.11v-1H2Z" />
		<path d="M24.29,31.5h0a.77.77,0,0,1-.71-.48L18.51,18.2a.76.76,0,0,1,1.08-.95l11.52,6.37A.76.76,0,0,1,31,25l-4.24,1.8L25,31A.75.75,0,0,1,24.29,31.5ZM20.72,19.63l3.59,9.08,1.19-2.8a.75.75,0,0,1,.41-.41L29,24.2Z" />
		<path d="M10.24,23.14H7.71a.77.77,0,0,1,0-1.54h2.53a.77.77,0,0,1,0,1.54Z" />
		<path d="M17.92,23.14H15.39a.77.77,0,0,1,0-1.54h2.53a.77.77,0,0,1,0,1.54Z" />
		<path d="M10.86,2.72H8.33a.77.77,0,1,1,0-1.53h2.53a.77.77,0,1,1,0,1.53Z" />
		<path d="M18.53,2.72H16a.77.77,0,1,1,0-1.53h2.53a.77.77,0,1,1,0,1.53Z" />
		<path d="M2.57,18.69a.78.78,0,0,1-.77-.77V15.39a.77.77,0,1,1,1.54,0v2.53A.78.78,0,0,1,2.57,18.69Z" />
		<path d="M2.57,11a.77.77,0,0,1-.77-.77V7.71a.77.77,0,0,1,1.54,0v2.53A.77.77,0,0,1,2.57,11Z" />
		<path d="M23.06,18.69a.78.78,0,0,1-.77-.77V15.39a.77.77,0,1,1,1.54,0v2.53A.78.78,0,0,1,23.06,18.69Z" />
		<path d="M23.06,11a.77.77,0,0,1-.77-.77V7.71a.77.77,0,0,1,1.54,0v2.53A.77.77,0,0,1,23.06,11Z" />
	</symbol>



	<symbol id="icon-marketing" class="icon-marketing" viewBox="0 0 32 32">
		<path d="M25.81,27.81V26.48h4.56a4.26,4.26,0,0,0-3.23-3.55l-4-1a.69.69,0,0,1-.47-.48l-.4-1.57a.68.68,0,0,1,.08-.55.74.74,0,0,1,.47-.32,11.91,11.91,0,0,0,3.31-.86c-.63-.95-1.5-2.92-1.5-6.54,0-3.31-.63-5.2-1.73-5.2h-.47A1.05,1.05,0,0,1,22,6.23a2,2,0,0,0-1.82-.78h0a.72.72,0,0,1-.55-.24.66.66,0,0,1-.08-.63.62.62,0,0,1,.63-.39,3.22,3.22,0,0,1,2.53.94h.23c2.05,0,3.07,2.21,3.07,6.46,0,4.88,1.66,6.22,1.66,6.3a.75.75,0,0,1,.23.55.76.76,0,0,1-.31.55,14.14,14.14,0,0,1-3.78,1.26l.16.55,3.62.87a5.57,5.57,0,0,1,4.25,5.44.62.62,0,0,1-.63.63Z" />
		<path d="M1.55,26.48H22.42a4.29,4.29,0,0,0-3.23-3.55l-4-1a.73.73,0,0,1-.47-.48l-.47-1.81a.53.53,0,0,1,.23-.63,5.07,5.07,0,0,0,1.74-3.54.67.67,0,0,1,.63-.63c.23,0,.31-.16.39-.24l.24-2a.34.34,0,0,0-.08-.23c0-.08-.08-.08-.24-.08a.67.67,0,0,1-.47-.24.57.57,0,0,1-.16-.47l.08-2.44a.61.61,0,0,1,.16-.4l.47-.47c.32-.31.47-.71-.08-1.57a3,3,0,0,0-2.75-1.19,5,5,0,0,0-3.16.87.56.56,0,0,1-.39.16C7.38,6.47,7.38,8,7.38,9.23c0,.47.15,1.81.23,2.36a.74.74,0,0,1-.16.55.65.65,0,0,1-.47.24.45.45,0,0,0-.31.08c-.16,0-.16.07-.16.15l.24,2c0,.16.15.24.31.24h.16a.62.62,0,0,1,.63.63A5.34,5.34,0,0,0,9.5,18.91a.61.61,0,0,1,.16.63l-.47,1.89a.72.72,0,0,1-.48.48l-4,1a4.51,4.51,0,0,0-3.15,3.55ZM.84,27.81a1,1,0,0,1-.47-.15,1.14,1.14,0,0,1-.16-.48,5.55,5.55,0,0,1,4.25-5.43l3.62-.87L8.4,19.7a7,7,0,0,1-1.73-3.54,1.59,1.59,0,0,1-1.18-1.34l-.24-2a1.66,1.66,0,0,1,.31-1.34,1.76,1.76,0,0,1,.63-.39C6.12,10.49,6,9.62,6,9.23c0-1.81.55-3.94,4.8-4a6.75,6.75,0,0,1,3.7-1c1.81,0,3.07.56,3.78,1.74,1,1.57.55,2.6-.08,3.23l-.31.31-.08,1.66a1.29,1.29,0,0,1,.55.39,1.46,1.46,0,0,1,.4,1.26l-.16,1.89a1.62,1.62,0,0,1-1.1,1.34,6.87,6.87,0,0,1-1.82,3.62L16,20.8l3.62.87a5.57,5.57,0,0,1,4.26,5.44.63.63,0,0,1-.63.63Z" />
	</symbol>

	//
	//-
	//
	<symbol id="icon-arrow" class="icon-arrow" viewBox="0 0 16 8">
		<polygon points="12.01 0 16 4 12.01 8 12.01 5 0 5 0 3 12.01 3 12.01 0"/>
	</symbol>


	<!-- SOCIAL ICONS -->
	<symbol id="social-tw" class="social-tw" viewBox="0 0 32 32">
		<path d="M32,6.08a13.23,13.23,0,0,1-3.77,1,6.61,6.61,0,0,0,2.89-3.63,13.23,13.23,0,0,1-4.18,1.6A6.56,6.56,0,0,0,15.59,9.57a6.67,6.67,0,0,0,.17,1.49A18.63,18.63,0,0,1,2.23,4.2a6.49,6.49,0,0,0-.89,3.3A6.58,6.58,0,0,0,4.26,13a6.63,6.63,0,0,1-3-.83v.08a6.57,6.57,0,0,0,5.26,6.44,6.57,6.57,0,0,1-1.73.23,6.26,6.26,0,0,1-1.23-.12,6.56,6.56,0,0,0,6.13,4.56,13.18,13.18,0,0,1-8.15,2.8A13.51,13.51,0,0,1,0,26a18.52,18.52,0,0,0,10.06,3c12.08,0,18.68-10,18.68-18.68l0-.85A13.21,13.21,0,0,0,32,6.08Z"/>
	</symbol>

	<symbol id="social-fb" class="social-fb" viewBox="0 0 32 32">
		<path d="M12 6.81v4.13H9V16h3v15h6.21V16h4.17s.39-2.42.58-5.07h-4.69V7.47a1.45 1.45 0 0 1 1.34-1.21H23V1h-4.6C11.87 1 12 6.06 12 6.81z"/>
	</symbol>

	<symbol id="social-ig" class="social-ig" viewBox="0 0 32 32">
		<path d="M22.72 1H9.28A8.28 8.28 0 0 0 1 9.28v13.44A8.28 8.28 0 0 0 9.28 31h13.44A8.28 8.28 0 0 0 31 22.72V9.28A8.28 8.28 0 0 0 22.72 1zm5.62 21.72a5.62 5.62 0 0 1-5.62 5.62H9.28a5.62 5.62 0 0 1-5.62-5.62V9.28a5.62 5.62 0 0 1 5.62-5.62h13.44a5.62 5.62 0 0 1 5.62 5.62v13.44z"/>
		<path d="M16 8.27A7.73 7.73 0 1 0 23.73 16 7.74 7.74 0 0 0 16 8.27zm0 12.8A5.07 5.07 0 1 1 21.07 16 5.08 5.08 0 0 1 16 21.07zM24.05 6a2 2 0 0 0 0 3.91 2 2 0 0 0 1.39-3.34A2 2 0 0 0 24.05 6z"/>
	</symbol>


	<!-- SHOPIFY PLUS ICONS -->
	<symbol id="icon-user-growth" class="icon-user-growth" viewBox="0 0 32 32">
		<path d="M31,23.51a.5.5,0,0,1-.5-.5,4.48,4.48,0,0,0-3.43-4.37l-4-1a.5.5,0,0,1-.36-.37l-.45-1.85a.5.5,0,0,1,.15-.49,5.92,5.92,0,0,0,1.84-3.69.51.51,0,0,1,.5-.45.44.44,0,0,0,.5-.4l.25-2a.49.49,0,0,0-.13-.4A.41.41,0,0,0,25,7.89a.48.48,0,0,1-.36-.16.46.46,0,0,1-.14-.36l.1-2.46a.48.48,0,0,1,.15-.33l.5-.5c.33-.34.59-.82-.07-1.83A3.26,3.26,0,0,0,22.33,1a6.18,6.18,0,0,0-2.59.5.5.5,0,0,1-.67-.25.51.51,0,0,1,.25-.66,7.23,7.23,0,0,1,3-.6A4.19,4.19,0,0,1,26.05,1.7c1,1.52.52,2.51-.06,3.09l-.36.36L25.56,7a1.39,1.39,0,0,1,.54.36,1.57,1.57,0,0,1,.39,1.19l-.25,2a1.42,1.42,0,0,1-1.06,1.24,6.88,6.88,0,0,1-1.89,3.72l.31,1.28,3.71.93A5.48,5.48,0,0,1,31.5,23,.5.5,0,0,1,31,23.51Z"/>
	    <path d="M26.19,29.82a.5.5,0,0,1-.5-.5v-6.2l-1.3,1.3a.5.5,0,0,1-.71-.71l2.16-2.15a.48.48,0,0,1,.54-.11.49.49,0,0,1,.31.46v7.41A.5.5,0,0,1,26.19,29.82Z"/>
	    <path d="M28.34,24.56a.54.54,0,0,1-.35-.14l-2.15-2.16a.49.49,0,1,1,.7-.7l2.16,2.15a.51.51,0,0,1,0,.71A.54.54,0,0,1,28.34,24.56Z"/>
	    <path d="M.5,23.41a.5.5,0,0,1-.5-.5,5.5,5.5,0,0,1,4.19-5.34l3.71-.93.36-1.34a6.83,6.83,0,0,1-1.8-3.64,1.46,1.46,0,0,1-1.15-1.27L5.06,8.45a1.42,1.42,0,0,1,1-1.59c-.08-.61-.19-1.6-.19-2C5.86,3,6.43,1,10.61.93A6.74,6.74,0,0,1,14.32,0,4.2,4.2,0,0,1,18,1.65c1,1.52.51,2.51-.06,3.09l-.36.36-.08,1.84a1.39,1.39,0,0,1,.54.36,1.59,1.59,0,0,1,.4,1.18l-.26,2a1.41,1.41,0,0,1-1,1.24,7,7,0,0,1-1.89,3.72l.31,1.28,3.71.93a5.47,5.47,0,0,1,4.08,4.46.5.5,0,0,1-1,.16,4.48,4.48,0,0,0-3.33-3.65l-4-1a.5.5,0,0,1-.36-.37l-.45-1.85a.48.48,0,0,1,.15-.49,5.92,5.92,0,0,0,1.84-3.69.5.5,0,0,1,.5-.45.45.45,0,0,0,.5-.4l.25-2A.54.54,0,0,0,17.34,8,.43.43,0,0,0,17,7.84a.48.48,0,0,1-.36-.16.46.46,0,0,1-.14-.36l.1-2.46a.47.47,0,0,1,.14-.33l.5-.5c.34-.34.59-.82-.06-1.83A3.27,3.27,0,0,0,14.32,1a5.53,5.53,0,0,0-3.27.86.47.47,0,0,1-.28.09c-3.61,0-3.91,1.4-3.91,2.9,0,.47.18,1.88.25,2.39a.53.53,0,0,1-.12.4.56.56,0,0,1-.38.17h-.1A.46.46,0,0,0,6.14,8a.44.44,0,0,0-.09.36l.26,2a.46.46,0,0,0,.45.41h.15a.51.51,0,0,1,.5.47,5.83,5.83,0,0,0,1.75,3.63.51.51,0,0,1,.14.49l-.5,1.9a.52.52,0,0,1-.37.36l-4,1A4.55,4.55,0,0,0,1,22.91.5.5,0,0,1,.5,23.41Z"/>
	    <path d="M31.5,32H20.83a.5.5,0,0,1-.5-.5v-3.2a.5.5,0,0,1,.5-.5.5.5,0,0,1,.5.5V31H31v-2.7a.5.5,0,0,1,1,0v3.2A.5.5,0,0,1,31.5,32Z"/>
	</symbol>


	<symbol id="icon-line-chart" class="icon-line-chart" viewBox="0 0 32 32">
		<path d="M3.06,31.45A.49.49,0,0,1,2.58,31V1a.49.49,0,0,1,1,0V31A.49.49,0,0,1,3.06,31.45Z"/>
	    <path d="M31,29.37H1a.49.49,0,0,1,0-1H31a.49.49,0,0,1,0,1Z"/>
	    <path d="M30.92,12.83a.48.48,0,0,1-.34-.14L24.39,6.5A.49.49,0,0,1,24.28,6a.48.48,0,0,1,.45-.29h6.19a.47.47,0,0,1,.48.48v6.19a.5.5,0,0,1-.3.45Zm-5-6.19,4.53,4.54V6.64Z"/>
	    <path d="M7.22,25.21a.51.51,0,0,1-.34-.14.48.48,0,0,1,0-.68l10.3-10.3a.47.47,0,0,1,.61-.06l2.75,1.85,6.44-7a.49.49,0,0,1,.69,0,.48.48,0,0,1,0,.68L21,16.84a.49.49,0,0,1-.62.07l-2.77-1.86-10,10A.52.52,0,0,1,7.22,25.21Z"/>
	</symbol>


	<symbol id="icon-bar-chart" class="icon-bar-chart" viewBox="0 0 32 32">
		<path d="M6.44,31.85H2.22a.5.5,0,0,1-.5-.5V17.59a.51.51,0,0,1,.3-.46.51.51,0,0,1,.55.11L4.35,19l1.73-1.78a.5.5,0,0,1,.85.35V31.35A.5.5,0,0,1,6.44,31.85Zm-3.73-1H5.94v-12L4.71,20.07a.49.49,0,0,1-.36.15A.48.48,0,0,1,4,20.08L2.71,18.79Z"/>
	    <path d="M13.89,31.85H9.62a.5.5,0,0,1-.5-.5v-18A.47.47,0,0,1,9.27,13l2.13-2.14a.5.5,0,0,1,.7,0L14.24,13a.51.51,0,0,1,.15.35v18A.51.51,0,0,1,13.89,31.85Zm-3.78-1h3.28V13.57l-1.64-1.64-1.64,1.64Z"/>
	    <path d="M21.29,31.85H17.07a.5.5,0,0,1-.5-.5V12.27a.53.53,0,0,1,.08-.27l2.09-3.18a.51.51,0,0,1,.36-.22.56.56,0,0,1,.41.14l2.13,2.14a.51.51,0,0,1,.15.35V31.35A.51.51,0,0,1,21.29,31.85Zm-3.73-1h3.23V11.44L19.23,9.88l-1.67,2.54Z"/>
	    <path d="M4.35,17A.5.5,0,0,1,4,16.9L.82,13.72a.5.5,0,0,1,0-.7.48.48,0,0,1,.7,0l2.81,2.8,7.05-8.09a.46.46,0,0,1,.36-.17.42.42,0,0,1,.36.14l2.79,2.79,3.88-4.88a.48.48,0,0,1,.36-.19.49.49,0,0,1,.38.14l2.82,2.83,6-6a.49.49,0,0,1,.7.7L22.69,9.45a.51.51,0,0,1-.71,0L19.2,6.66l-3.88,4.88a.52.52,0,0,1-.36.19.54.54,0,0,1-.38-.15l-2.8-2.8-7,8.09a.46.46,0,0,1-.36.17Z"/>
	    <path d="M28.69,31.85H24.47a.51.51,0,0,1-.5-.5V10.19a.47.47,0,0,1,.15-.35l2.63-2.68A.56.56,0,0,1,27.1,7a.5.5,0,0,1,.35.14L29,8.74a.49.49,0,0,1,.15.35V31.35A.5.5,0,0,1,28.69,31.85Zm-3.72-1H28.2V9.3L27.11,8.21,25,10.39Z"/>
	    <path d="M30.83,5.37a.47.47,0,0,1-.35-.15L26.25,1a.49.49,0,0,1-.1-.54.48.48,0,0,1,.46-.31h3.67a.47.47,0,0,1,.28.09.42.42,0,0,1,.27-.09.5.5,0,0,1,.49.5V4.87a.51.51,0,0,1-.3.46A.43.43,0,0,1,30.83,5.37Zm-3-4.22,2.53,2.52V1.14H27.8Z"/>
	</symbol>


	<!-- Shopify Plus Perks Icons -->

	<symbol id="icon-loop" class="icon-loop" viewBox="0 0 32 32">
		<path d="M16,32h-.62a1,1,0,0,1-1-.64,1.05,1.05,0,0,1,.24-1.13l5.26-5.16a1,1,0,0,1,1.76.74v2.92a13.92,13.92,0,0,0-1.45-26,1,1,0,0,1,.63-2A16,16,0,0,1,16,32Zm3.61-3.74-1.55,1.52a12.89,12.89,0,0,0,1.55-.32Z"/>
    	<path d="M11.46,31.28a1.19,1.19,0,0,1-.32-.05A16,16,0,0,1,16,0h.62a1,1,0,0,1,.95.64,1,1,0,0,1-.23,1.13L12.08,6.93a1,1,0,0,1-1.76-.74V3.27a13.92,13.92,0,0,0,1.45,26,1,1,0,0,1-.31,2Zm.93-28.74v1.2l1.55-1.52A12.89,12.89,0,0,0,12.39,2.54Z"/>
	</symbol>


	<symbol id="icon-store" class="icon-store" viewBox="0 0 32 32">
		<path d="M5.47,16.19a3.41,3.41,0,0,1-3.36-3.36.79.79,0,0,1,.1-.37L6,5.81a.74.74,0,0,1,.65-.37H9.43a.76.76,0,0,1,.58.27.73.73,0,0,1,.15.62L8.83,12.91A3.41,3.41,0,0,1,5.47,16.19ZM3.62,13a1.86,1.86,0,0,0,3.72-.18c0-.05,0-.1,0-.15L8.52,6.93H7.1Z"/>
	    <path d="M15.93,16.19a3.25,3.25,0,0,1-3.29-3.29V6.18a.74.74,0,0,1,.75-.74h5.15a.75.75,0,0,1,.53.22.7.7,0,0,1,.21.53l-.07,6.72A3.25,3.25,0,0,1,15.93,16.19Zm-1.8-9.26v6a1.8,1.8,0,0,0,3.59,0l.06-6Z"/>
	    <path d="M10.7,16.19A3.3,3.3,0,0,1,7.34,12.9c0-.05,0-.1,0-.15L8.7,6.11a.75.75,0,0,1,.73-.6h3.63a.72.72,0,0,1,.33-.07.74.74,0,0,1,.74.74V12.9A3.33,3.33,0,0,1,10.7,16.19ZM8.83,13a1.79,1.79,0,0,0,1.87,1.72,1.84,1.84,0,0,0,1.94-1.79V7H10Z"/>
	    <path d="M26.45,16.19a3.41,3.41,0,0,1-3.36-3.29L21.84,6.32A.71.71,0,0,1,22,5.71a.78.78,0,0,1,.58-.27h2.69a.74.74,0,0,1,.64.37l3.81,6.65a.69.69,0,0,1,.1.37A3.41,3.41,0,0,1,26.45,16.19Zm-3-9.26,1.1,5.76a.59.59,0,0,1,0,.14,1.86,1.86,0,0,0,3.72.18L24.82,6.93Z"/>
	    <path d="M21.23,16.19a3.33,3.33,0,0,1-3.44-3.29V6.18a.75.75,0,0,1,.75-.74h4a.73.73,0,0,1,.73.6l1.27,6.65a.59.59,0,0,1,0,.14A3.33,3.33,0,0,1,21.23,16.19ZM19.28,6.93v6a1.91,1.91,0,0,0,3.81,0L22,6.93Z"/>
	    <path d="M26.23,28.58H5.62a.75.75,0,0,1-.74-.75V15.59a.75.75,0,1,1,1.49,0v11.5H25.48V15.59a.75.75,0,1,1,1.49,0V27.83A.75.75,0,0,1,26.23,28.58Z"/>
	    <path d="M30.41,31.64H1.59a.74.74,0,0,1-.74-.75,3.8,3.8,0,0,1,3.8-3.8H27.27a3.89,3.89,0,0,1,3.88,3.77.75.75,0,0,1-.2.55A.74.74,0,0,1,30.41,31.64ZM2.46,30.15H29.51a2.36,2.36,0,0,0-2.24-1.57H4.65A2.32,2.32,0,0,0,2.46,30.15Z"/>
	    <path d="M25.26,6.93H6.67a.75.75,0,0,1-.75-.75V3.65A3.25,3.25,0,0,1,9.21.36H22.57a3.25,3.25,0,0,1,3.28,3.29V5.73a.72.72,0,0,1,.15.45A.74.74,0,0,1,25.26,6.93ZM7.41,5.44h17V3.65a1.78,1.78,0,0,0-1.79-1.8H9.21a1.78,1.78,0,0,0-1.8,1.8Z"/>
	</symbol>



	<symbol id="icon-api" class="icon-api" viewBox="0 0 32 32">
		<path d="M17.08,10.39a.76.76,0,0,1-.77-.77V7.18A.78.78,0,0,1,15.46,7a.76.76,0,0,1,0-1.08l1.07-1.08a.77.77,0,0,1,.84-.16.74.74,0,0,1,.47.71V9.62A.76.76,0,0,1,17.08,10.39Z"/>
	    <path d="M10.7,17.84a.76.76,0,0,1-.77-.76V14.55a.77.77,0,0,1-.83-1.26l1.07-1a.77.77,0,0,1,.83-.15.79.79,0,0,1,.47.71v4.23A.77.77,0,0,1,10.7,17.84Z"/>
	    <path d="M21.3,10.39a.77.77,0,0,1-.77-.77V7.18A.78.78,0,0,1,19.68,7a.76.76,0,0,1,0-1.08l1.08-1.08a.77.77,0,0,1,.84-.16.76.76,0,0,1,.47.71V9.62A.76.76,0,0,1,21.3,10.39Z"/>
	    <path d="M21.3,17.84a.77.77,0,0,1-.77-.76V14.55a.76.76,0,0,1-.87-.18.77.77,0,0,1,0-1.09l1.08-1a.77.77,0,0,1,.83-.15.78.78,0,0,1,.46.71v4.23A.76.76,0,0,1,21.3,17.84Z"/>
	    <path d="M7.55,10.39H4.32a.76.76,0,0,1-.77-.77V5.4a.76.76,0,0,1,.77-.77H7.55a.77.77,0,0,1,.77.77V9.62A.77.77,0,0,1,7.55,10.39ZM5.09,8.85H6.78V6.16H5.09Z"/>
	    <path d="M7.55,17.84H4.32a.76.76,0,0,1-.77-.76V12.85a.76.76,0,0,1,.77-.77H7.55a.77.77,0,0,1,.77.77v4.23A.77.77,0,0,1,7.55,17.84ZM5.09,16.31H6.78V13.62H5.09Z"/>
	    <path d="M17.08,17.84H13.85a.76.76,0,0,1-.77-.76V12.85a.76.76,0,0,1,.77-.77h3.23a.76.76,0,0,1,.76.77v4.23A.76.76,0,0,1,17.08,17.84Zm-2.46-1.53h1.69V13.62H14.62Z"/>
	    <path d="M27.68,17.84H24.45a.77.77,0,0,1-.77-.76V12.85a.77.77,0,0,1,.77-.77h3.23a.76.76,0,0,1,.77.77v4.23A.76.76,0,0,1,27.68,17.84Zm-2.46-1.53h1.69V13.62H25.22Z"/>
	    <path d="M13.85,10.39H10.7a.76.76,0,0,1-.77-.77V5.4a.76.76,0,0,1,.77-.77h3.15a.77.77,0,0,1,.77.77V9.62A.77.77,0,0,1,13.85,10.39ZM11.47,8.85h1.61V6.16H11.47Z"/>
	    <path d="M27.68,10.39H24.45a.77.77,0,0,1-.77-.77V5.4a.77.77,0,0,1,.77-.77h3.23a.76.76,0,0,1,.77.77V9.62A.76.76,0,0,1,27.68,10.39ZM25.22,8.85h1.69V6.16H25.22Z"/>
	    <path d="M28.14,26.3H3.86A3.51,3.51,0,0,1,.4,22.84v-19A3.5,3.5,0,0,1,3.86.4H28.14A3.5,3.5,0,0,1,31.6,3.86v19A3.51,3.51,0,0,1,28.14,26.3ZM3.86,1.94A2,2,0,0,0,1.94,3.86v19a2,2,0,0,0,1.92,1.92H28.14a2,2,0,0,0,1.92-1.92v-19a2,2,0,0,0-1.92-1.92Z"/>
	    <path d="M25.53,31.6H6.47a.77.77,0,0,1-.77-.77,3.27,3.27,0,0,1,3.46-2.92h13.6c2,.1,3.54,1.36,3.54,2.92A.77.77,0,0,1,25.53,31.6ZM7.6,30.06H24.38a2.68,2.68,0,0,0-1.66-.61H9.16A2.19,2.19,0,0,0,7.6,30.06Z"/>
	    <path d="M30.83,22.07H1.17a.77.77,0,0,1,0-1.54H30.83a.77.77,0,0,1,0,1.54Z"/>
	    <path d="M17.08,29.53a.77.77,0,0,1-.77-.77V26.3h-.62v2.46a.77.77,0,1,1-1.53,0V25.53a.76.76,0,0,1,.76-.77h2.16a.76.76,0,0,1,.76.77v3.23A.77.77,0,0,1,17.08,29.53Z"/>
	</symbol>


	<symbol id="icon-cart" class="icon-cart" viewBox="0 0 32 32">
		<path d="M25.13,30.74A3.14,3.14,0,0,1,23,29.87,3.41,3.41,0,0,1,22,27.39a3.35,3.35,0,1,1,3.34,3.34Zm.16-5.14a1.81,1.81,0,0,0-1.79,1.79,1.86,1.86,0,0,0,.57,1.35,1.59,1.59,0,0,0,1.18.44,1.79,1.79,0,1,0,0-3.58Z"/>
	    <path d="M11.76,30.73a3.31,3.31,0,0,1-3.34-3.34,3.35,3.35,0,1,1,3.34,3.34Zm0-5.13A1.81,1.81,0,0,0,10,27.39a1.78,1.78,0,0,0,1.79,1.79,1.79,1.79,0,1,0,0-3.58Z"/>
	    <path d="M28.4,22.49H11.92a4.66,4.66,0,0,1-4.57-3.81L4.2,2.82H1A.78.78,0,0,1,1,1.26H4.84a.77.77,0,0,1,.76.63L8.87,18.37a3.14,3.14,0,0,0,3.05,2.57H28.4a.77.77,0,0,1,.78.77A.78.78,0,0,1,28.4,22.49Z"/>
	    <path d="M8,18.6a.77.77,0,0,1-.77-.68.78.78,0,0,1,.68-.87l20.68-2.49c.29,0,.46-.17.49-.41l1-7.21H5.7a.78.78,0,0,1,0-1.56H31.05a.76.76,0,0,1,.58.27.79.79,0,0,1,.19.62l-1.17,8.09a2,2,0,0,1-1.84,1.75L8.12,18.6Z"/>
	</symbol>


	<symbol id="icon-script" class="icon-script" viewBox="0 0 32 32">
		<path d="M28.66,30.68H3.34a3.06,3.06,0,0,1-3.09-3.1V4.42a3.06,3.06,0,0,1,3.09-3.1H28.66a3.06,3.06,0,0,1,3.09,3.1V27.58A3.06,3.06,0,0,1,28.66,30.68ZM3.34,2.11A2.28,2.28,0,0,0,1,4.42V27.58a2.28,2.28,0,0,0,2.3,2.31H28.66A2.28,2.28,0,0,0,31,27.58V4.42a2.28,2.28,0,0,0-2.3-2.31Z"/>
	    <path d="M31.35,6.32H.65a.4.4,0,0,1-.4-.4.39.39,0,0,1,.4-.39h30.7a.39.39,0,0,1,.4.39A.4.4,0,0,1,31.35,6.32Z"/>
	    <g>
	      <path id="Fill-3889" d="M4.38,3.86a.55.55,0,0,1-.56.56.53.53,0,0,1-.48-.56c0-.24.24-.56.48-.56a.6.6,0,0,1,.56.56" style="fill: #fff"/>
	      <path d="M3.82,4.81A.91.91,0,0,1,3,3.86a1,1,0,0,1,.87-.95,1,1,0,0,1,.95.95A.94.94,0,0,1,3.82,4.81Zm0-1.11s-.08.11-.08.16,0,.16.08.16A.15.15,0,0,0,4,3.86C4,3.78,3.86,3.7,3.82,3.7Z"/>
	    </g>
	    <g>
	      <path id="Fill-3891" d="M6.52,3.86A.55.55,0,0,1,6,4.42a.67.67,0,0,1-.55-.56A.6.6,0,0,1,6,3.3a.55.55,0,0,1,.56.56" style="fill: #fff"/>
	      <path d="M6,4.81H5.87A1.05,1.05,0,0,1,5,3.86a1,1,0,0,1,1-.95,1,1,0,1,1,0,1.9ZM6,3.7c-.07,0-.15.12-.16.16A.34.34,0,0,0,6,4a.14.14,0,0,0,.11-.15A.15.15,0,0,0,6,3.7Z"/>
	    </g>
	    <g>
	      <path id="Fill-3893" d="M8.58,3.86A.54.54,0,0,1,8,4.42a.53.53,0,0,1-.48-.56.6.6,0,0,1,.56-.56c.31,0,.47.24.47.56" style="fill: #fff"/>
	      <path d="M8,4.81a.92.92,0,0,1-.88-.95,1,1,0,0,1,1-.95A.87.87,0,0,1,9,3.86.94.94,0,0,1,8,4.81ZM8.11,3.7C8,3.7,8,3.82,8,3.86S8,4,8,4a.14.14,0,0,0,.15-.16C8.18,3.7,8.14,3.7,8.11,3.7Z"/>
	    </g>
	    <path d="M22.39,24.33H20a.66.66,0,0,1-.72-.63l-.19-1.23a4.63,4.63,0,0,1-.74-.39l-1.31.48a.32.32,0,0,1-.14,0,.75.75,0,0,1-.75-.38l-1.17-2a.75.75,0,0,1,.13-.88l1.16-.87v-.71L15.17,17a.51.51,0,0,1-.26-.32.73.73,0,0,1,.06-.57l1.21-2a.67.67,0,0,1,.91-.31l1.27.47a5,5,0,0,1,.73-.4l.21-1.28a.53.53,0,0,1,0-.12A.75.75,0,0,1,20,12h2.38a.67.67,0,0,1,.71.64l.2,1.22a4.12,4.12,0,0,1,.73.4l1.31-.49.14,0a.75.75,0,0,1,.75.38l1.18,2a.77.77,0,0,1-.14.89l-1.1.82a2,2,0,0,1,0,.4,2.8,2.8,0,0,1-.05.36v0l1.06.8a.59.59,0,0,1,.31.44.76.76,0,0,1-.09.46l-1.2,2a.67.67,0,0,1-.92.31L24,22.08a4.12,4.12,0,0,1-.73.39l-.2,1.29a.36.36,0,0,1,0,.11A.73.73,0,0,1,22.39,24.33Zm-2.31-.71h0Zm0-.08h2.25l.23-1.41a.38.38,0,0,1,.25-.31,4.09,4.09,0,0,0,.94-.5.36.36,0,0,1,.37-.06l1.45.53,1.12-1.87L25.48,19a.38.38,0,0,1-.16-.31,2.8,2.8,0,0,1,.05-.36,1.62,1.62,0,0,0,0-.2,1.11,1.11,0,0,0,0-.37.41.41,0,0,1,.12-.5l1.2-.9-1.12-1.88h0L24.11,15a.38.38,0,0,1-.37,0,4.09,4.09,0,0,0-.94-.51.37.37,0,0,1-.25-.3l-.22-1.41H20.07l-.23,1.41a.37.37,0,0,1-.24.3,3.89,3.89,0,0,0-.94.51.4.4,0,0,1-.38,0l-1.44-.53-1.13,1.88,1.2.9a.39.39,0,0,1,.16.32V18.7a.38.38,0,0,1-.16.31l-1.2.91,1.12,1.87h0l1.44-.53a.38.38,0,0,1,.38.06,3.89,3.89,0,0,0,.94.5.39.39,0,0,1,.24.31Zm5.55-1.72ZM26.81,20h0ZM15.58,16.28l0,0S15.59,16.29,15.58,16.28Zm1.2-1.81Zm5.53-1.82h0Zm-1,7.48a2,2,0,1,1,2-2A2,2,0,0,1,21.28,20.13Zm0-3.18a1.19,1.19,0,1,0,1.19,1.19A1.19,1.19,0,0,0,21.28,17Z"/>
	    <path d="M16.44,27.5a.37.37,0,0,1-.28-.11.39.39,0,0,1,0-.52V23.38a.15.15,0,0,0-.06-.1L14,23a.4.4,0,0,1-.31-.24,7.65,7.65,0,0,0-.76-1.44.42.42,0,0,1,0-.36l.79-2.22s0,0,0-.1L10.77,17s-.06,0-.08,0L9.38,18.77c-.16.22-.47.17-.78.12l-.34,0a2.81,2.81,0,0,0-.66.05.39.39,0,0,1-.45-.14L5.8,17h0L4,17.93a.4.4,0,0,1-.54-.15.4.4,0,0,1,.16-.54l1.75-.95a.74.74,0,0,1,1,.14L7.64,18.1a3.26,3.26,0,0,1,1.08,0l.15,0,1.22-1.65a.9.9,0,0,1,1.05-.2L14.09,18a.47.47,0,0,1,.09.06.89.89,0,0,1,.25,1L13.7,21a8.32,8.32,0,0,1,.63,1.2l1.93.28.12,0a.93.93,0,0,1,.53.83v3.49a.71.71,0,0,1-.19.52A.38.38,0,0,1,16.44,27.5Z"/>
	    <path d="M8,27.5A2.47,2.47,0,0,1,5.57,25a2.54,2.54,0,0,1,2.54-2.54A2.5,2.5,0,0,1,10.56,25,2.53,2.53,0,0,1,8,27.5Zm.08-4.28A1.73,1.73,0,0,0,6.36,25,1.67,1.67,0,0,0,8,26.71a1.75,1.75,0,0,0,.08-3.49Z"/>
	</symbol>
	
	
	<symbol id="icon-chat" class="icon-chat" viewBox="0 0 32 32">
		<path d="M1.07,23.91a.74.74,0,0,1-.54-.23.77.77,0,0,1-.17-.84l2.25-5.52A10.54,10.54,0,0,1,12,1.84,10.35,10.35,0,0,1,22.44,12.26,10.58,10.58,0,0,1,11.87,22.83a10.33,10.33,0,0,1-5-1.23L1.36,23.85A.72.72,0,0,1,1.07,23.91ZM12,3.39a9,9,0,0,0-9,8.94,9.12,9.12,0,0,0,1.21,4.56.75.75,0,0,1,0,.67l-1.7,4.17L6.64,20a.77.77,0,0,1,.68,0,8.87,8.87,0,0,0,4.55,1.2,9,9,0,0,0,9-9A8.81,8.81,0,0,0,12,3.39Z"/>
	    <path d="M30.93,30.16a.72.72,0,0,1-.29-.06l-5.52-2.25a10.54,10.54,0,0,1-13.57-3.26.78.78,0,0,1,.18-1.08.77.77,0,0,1,1.08.18,9,9,0,0,0,11.87,2.64.78.78,0,0,1,.68,0L29.52,28l-1.7-4.17a.75.75,0,0,1,.05-.67,8.92,8.92,0,0,0,1.21-4.56,9.14,9.14,0,0,0-6-8.52.78.78,0,0,1-.48-1,.76.76,0,0,1,1-.47,10.69,10.69,0,0,1,7.08,10,10.28,10.28,0,0,1-1.23,5l2.25,5.52a.77.77,0,0,1-.17.84A.74.74,0,0,1,30.93,30.16Z"/>
	</symbol>

	<!-- Common Icons -->
	<symbol id="icon-chevron" class="icon-chevron" viewBox="0 0 32 32" fill="#262626">
		<path d="28.4183 8.43555L16.0014 20.5782L3.58452 8.43409C2.99252 7.8553 2.03488 7.8553 1.44288 8.43409C0.852374 9.01287 0.852374 9.9506 1.44288 10.5294L14.9299 23.7198C15.5204 24.2985 16.4796 24.2985 17.0701 23.7198L30.5571 10.5295C31.1476 9.95072 31.1476 9.01153 30.5571 8.43275C29.9681 7.85677 29.0089 7.85677 28.4183 8.43555Z"/>
	</symbol>
	

</svg>