<svg width="141" height="141" viewBox="0 0 141 141" fill="none" xmlns="http://www.w3.org/2000/svg">
	<rect x="1.21999" y="0.68399" width="139" height="139" stroke="white" stroke-opacity="0.01"/>
	<path d="M20.0984 13.9889C20.6039 12.9653 21.6466 12.3173 22.7882 12.3173H38.0533H53.3184C54.4601 12.3173 55.5027 12.9653 56.0083 13.9889L62.32 26.7689V52.1173C62.32 54.8787 60.0814 57.1173 57.32 57.1173H18.7867C16.0252 57.1173 13.7867 54.8787 13.7867 52.1173V26.7689L20.0984 13.9889Z" stroke="#C0BDB6" stroke-width="3" stroke-linecap="round"/>
	<path d="M61.9222 27.484H13.7867Z" fill="white"/>
	<path d="M61.9222 27.484H13.7867" stroke="#C0BDB6" stroke-width="3" stroke-linecap="round"/>
	<path d="M44.5867 14.184L48.32 26.8632V56.184" stroke="#C0BDB6" stroke-width="3" stroke-linecap="round"/>
	<path d="M30.5867 14.184L26.8533 26.8632V56.184" stroke="#C0BDB6" stroke-width="3" stroke-linecap="round"/>
	<path d="M75.3867 36.584V36.584C89.1938 36.584 100.587 47.7769 100.587 61.584V65.5173" stroke="#C0BDB6" stroke-width="3" stroke-linecap="round" stroke-dasharray="5 8"/>
	<path d="M94.0533 58.984L100.587 65.5173L107.12 58.984" stroke="#C0BDB6" stroke-width="3" stroke-linecap="round" stroke-linejoin="round"/>
	<path d="M81.9987 76.5163C82.5054 75.496 83.5464 74.8506 84.6857 74.8506H102.92H121.154C122.294 74.8506 123.335 75.496 123.841 76.5163L131.387 91.7109V122.117C131.387 124.879 129.148 127.117 126.387 127.117H79.4533C76.6919 127.117 74.4533 124.879 74.4533 122.117V91.7109L81.9987 76.5163Z" stroke="#FFD481" stroke-width="3" stroke-linecap="round"/>
	<path d="M130.92 91.884H74.4533Z" fill="#FFD481"/>
	<path d="M130.92 91.884H74.4533" stroke="#FFD481" stroke-width="3" stroke-linecap="round"/>
	<path d="M110.853 76.7173L115.52 91.6506V126.184" stroke="#FFD481" stroke-width="3" stroke-linecap="round"/>
	<path d="M94.9867 76.7173L90.32 91.6506V126.184" stroke="#FFD481" stroke-width="3" stroke-linecap="round"/>
	<path d="M37.5867 117.784C47.1228 117.784 54.8533 110.053 54.8533 100.517C54.8533 90.9812 47.1228 83.2507 37.5867 83.2507C28.0505 83.2507 20.32 90.9812 20.32 100.517C20.32 110.053 28.0505 117.784 37.5867 117.784Z" stroke="#C0BDB6" stroke-width="3" stroke-linecap="round" stroke-dasharray="4 9"/>
	<path d="M37.12 127.117C52.0685 127.117 64.1867 114.999 64.1867 100.051C64.1867 85.1022 52.0685 72.984 37.12 72.984C22.1715 72.984 10.0533 85.1022 10.0533 100.051C10.0533 114.999 22.1715 127.117 37.12 127.117Z" stroke="#C0BDB6" stroke-width="3" stroke-linecap="round"/>
	<path fill-rule="evenodd" clip-rule="evenodd" d="M38.2995 109.424C38.2995 109.917 37.8996 110.317 37.4063 110.317V110.317C36.913 110.317 36.513 109.917 36.513 109.424V107.899C35.0319 107.744 33.8638 107.221 33.0087 106.329C32.3848 105.679 31.9519 104.964 31.7101 104.186C31.5529 103.68 31.8846 103.178 32.389 103.016V103.016C33.0604 102.801 33.7481 103.277 34.0387 103.919C34.1659 104.201 34.3265 104.465 34.5204 104.713C34.9938 105.318 35.658 105.698 36.513 105.853V100.992L35.9404 100.876C34.7494 100.628 33.818 100.14 33.1462 99.4112C32.4743 98.6825 32.1384 97.7601 32.1384 96.6439C32.1384 95.5277 32.5468 94.5511 33.3638 93.7139C34.1807 92.8768 35.2304 92.3807 36.513 92.2257V90.6772C36.513 90.1839 36.913 89.784 37.4063 89.784V89.784C37.8996 89.784 38.2995 90.1839 38.2995 90.6772V92.2489C39.5669 92.4195 40.5403 92.8652 41.2198 93.586C41.6751 94.0691 42.0293 94.5957 42.2824 95.1659C42.496 95.6471 42.2093 96.1783 41.7159 96.362V96.362C41.1004 96.5911 40.4161 96.1804 40.0584 95.6295C39.9907 95.5251 39.9159 95.4214 39.8341 95.3185C39.4524 94.8379 38.9409 94.5046 38.2995 94.3185V99.0856L38.6431 99.1554C39.8952 99.4034 40.8877 99.9228 41.6206 100.713C42.3535 101.504 42.72 102.426 42.72 103.481C42.72 104.581 42.3306 105.55 41.5519 106.387C40.7732 107.225 39.6891 107.728 38.2995 107.899V109.424ZM39.92 103.305C39.92 102.773 39.7628 102.298 39.4484 101.879C39.134 101.46 38.669 101.161 38.0533 100.984V105.651C38.669 105.506 39.134 105.224 39.4484 104.804C39.7628 104.385 39.92 103.886 39.92 103.305ZM34.32 96.8822C34.32 98.0776 34.9422 98.8226 36.1867 99.1173V94.4507C35.605 94.5816 35.1485 94.8682 34.8171 95.3103C34.4857 95.7524 34.32 96.2764 34.32 96.8822Z" fill="#FFD481"/>
	<path d="M38.2867 57.1173V71.1173Z" fill="white"/>
	<path d="M38.2867 57.1173V71.1173" stroke="#C0BDB6" stroke-width="3" stroke-linecap="round"/>
</svg>
