<svg version="1.1" id="Layer_1" xmlns="http://www.w3.org/2000/svg" xmlns:xlink="http://www.w3.org/1999/xlink" x="0px" y="0px"
	 viewBox="0 0 48 37" style="enable-background:new 0 0 48 37;" xml:space="preserve" fill="#4a4a4a">
	<path id="_x201C_-copy" d="M25.9,26.7c0,5.2,4.4,9.5,10.6,9.5C43.9,36.2,48,30,48,23.7C48,6.7,35.9,0.6,27.8,0v8.4
	c4.3,0.5,10.1,3.8,10.5,9.5c-0.2-0.1-1.5-0.6-2.7-0.6C29.4,17.3,25.9,21.2,25.9,26.7z M0,26.7c0,5.2,4.4,9.5,10.6,9.5
	C18,36.2,22,30,22,23.7C22,6.7,10,0.6,1.9,0v8.4c4.3,0.5,10.1,3.8,10.5,9.5c-0.2-0.1-1.5-0.6-2.7-0.6C3.5,17.3,0,21.2,0,26.7z"/>
</svg>
